CellTax	Ab	bed_file
retina_Early_10090	h3k27me3	SRR2132091_h3k27me3_10090_peaks.broadPeak
retina_Early_10090	h3k27me3	SRR2132100_h3k27me3_10090_peaks.broadPeak
retina_Early_10090	h3k27me3	SRR2132097_h3k27me3_10090_peaks.broadPeak
retina_Early_10090	h3k27me3	SRR2132094_h3k27me3_10090_peaks.broadPeak
retina_Early_10090	h3k27me3	SRR2132085_h3k27me3_10090_peaks.broadPeak
retina_Early_10090	h3k27me3	SRR2132088_h3k27me3_10090_peaks.broadPeak
retina_Late_10090	h3k27me3	SRR2721966_h3k27me3_10090_peaks.broadPeak
retina_Late_10090	h3k27me3	SRR2721965_h3k27me3_10090_peaks.broadPeak
retina_Late_10090	h3k27me3	SRR2759040_h3k27me3_10090_peaks.broadPeak
retina_Late_10090	h3k27me3	SRR2759042_h3k27me3_10090_peaks.broadPeak
retina_Late_10090	h3k27me3	SRR2759044_h3k27me3_10090_peaks.broadPeak
retina_Late_10090	h3k27me3	SRR2759045_h3k27me3_10090_peaks.broadPeak
retina_Early_10090	h3k27me3	SRR2759037_h3k27me3_10090_peaks.broadPeak
retina_Late_10090	h3k27me3	SRR2759039_h3k27me3_10090_peaks.broadPeak
retina_Early_10090	h3k27me3	SRR2759038_h3k27me3_10090_peaks.broadPeak
retina_Late_10090	h3k27me3	SRR2759041_h3k27me3_10090_peaks.broadPeak
retina_Early_10090	h3k27me3	SRR3591314_h3k27me3_10090_peaks.broadPeak
retina_Late_10090	h3k27me3	SRR3591320_h3k27me3_10090_peaks.broadPeak
retina_Late_10090	h3k27me3	SRR3591317_h3k27me3_10090_peaks.broadPeak
retina_Early_10090	h3k27me3	SRR4252735_h3k27me3_10090_peaks.broadPeak
retina_Early_10090	h3k27me3	SRR4252729_h3k27me3_10090_peaks.broadPeak
retina_Late_10090	h3k27me3	SRR4252736_h3k27me3_10090_peaks.broadPeak
retina_Early_10090	h3k27me3	SRR4252731_h3k27me3_10090_peaks.broadPeak
retina_Early_10090	h3k27me3	SRR4252727_h3k27me3_10090_peaks.broadPeak
retina_Early_10090	h3k27me3	SRR4252733_h3k27me3_10090_peaks.broadPeak
retina_Late_10090	h3k27me3	SRR4252742_h3k27me3_10090_peaks.broadPeak
retina_Late_10090	h3k27me3	SRR4252743_h3k27me3_10090_peaks.broadPeak
retina_Late_10090	h3k27me3	SRR4252746_h3k27me3_10090_peaks.broadPeak
retina_Early_10090	h3k27me3	SRR4252730_h3k27me3_10090_peaks.broadPeak
retina_Late_10090	h3k27me3	SRR4252741_h3k27me3_10090_peaks.broadPeak
retina_Late_10090	h3k27me3	SRR4252738_h3k27me3_10090_peaks.broadPeak
retina_Late_10090	h3k27me3	SRR4252737_h3k27me3_10090_peaks.broadPeak
retina_Late_10090	h3k27me3	SRR4252739_h3k27me3_10090_peaks.broadPeak
retina_Late_10090	h3k27me3	SRR4252747_h3k27me3_10090_peaks.broadPeak
retina_Late_10090	h3k27me3	SRR4252740_h3k27me3_10090_peaks.broadPeak
retina_Early_10090	h3k27me3	SRR4252726_h3k27me3_10090_peaks.broadPeak
retina_Early_10090	h3k27me3	SRR4252732_h3k27me3_10090_peaks.broadPeak
retina_Early_10090	h3k27me3	SRR4252734_h3k27me3_10090_peaks.broadPeak
retina_Early_10090	h3k27me3	SRR4252728_h3k27me3_10090_peaks.broadPeak
retina_Early_10090	h3k4me3	SRR2132090_h3k4me3_10090_peaks.gappedPeak
retina_Early_10090	h3k4me3	SRR2132096_h3k4me3_10090_peaks.gappedPeak
retina_Early_10090	h3k4me3	SRR2132093_h3k4me3_10090_peaks.gappedPeak
retina_Early_10090	h3k4me3	SRR2132099_h3k4me3_10090_peaks.gappedPeak
retina_Early_10090	h3k4me3	SRR2132087_h3k4me3_10090_peaks.gappedPeak
retina_Early_10090	h3k4me3	SRR2132084_h3k4me3_10090_peaks.gappedPeak
retina_Early_10090	h3k4me3	SRR2759046_h3k4me3_10090_peaks.gappedPeak
retina_Late_10090	h3k4me3	SRR2759053_h3k4me3_10090_peaks.gappedPeak
retina_Late_10090	h3k4me3	SRR2759049_h3k4me3_10090_peaks.gappedPeak
retina_Late_10090	h3k4me3	SRR2759052_h3k4me3_10090_peaks.gappedPeak
retina_Early_10090	h3k4me3	SRR2759047_h3k4me3_10090_peaks.gappedPeak
retina_Late_10090	h3k4me3	SRR2759051_h3k4me3_10090_peaks.gappedPeak
retina_Early_10090	h3k4me3	SRR3591315_h3k4me3_10090_peaks.gappedPeak
retina_Late_10090	h3k4me3	SRR4252856_h3k4me3_10090_peaks.gappedPeak
retina_Late_10090	h3k4me3	SRR4252855_h3k4me3_10090_peaks.gappedPeak
retina_Late_10090	h3k4me3	SRR4252859_h3k4me3_10090_peaks.gappedPeak
retina_Late_10090	h3k4me3	SRR4252858_h3k4me3_10090_peaks.gappedPeak
retina_Late_10090	h3k4me3	SRR4252850_h3k4me3_10090_peaks.gappedPeak
retina_Late_10090	h3k4me3	SRR4252854_h3k4me3_10090_peaks.gappedPeak
retina_Late_10090	h3k4me3	SRR4252851_h3k4me3_10090_peaks.gappedPeak
retina_Early_10090	h3k4me3	SRR4252844_h3k4me3_10090_peaks.gappedPeak
retina_Early_10090	h3k4me3	SRR4252845_h3k4me3_10090_peaks.gappedPeak
retina_Late_10090	h3k4me3	SRR4252852_h3k4me3_10090_peaks.gappedPeak
retina_Early_10090	h3k4me3	SRR4252841_h3k4me3_10090_peaks.gappedPeak
retina_Early_10090	h3k4me3	SRR4252840_h3k4me3_10090_peaks.gappedPeak
retina_Early_10090	h3k4me3	SRR4252842_h3k4me3_10090_peaks.gappedPeak
retina_Early_10090	h3k4me3	SRR4252848_h3k4me3_10090_peaks.gappedPeak
retina_Early_10090	h3k4me3	SRR4252843_h3k4me3_10090_peaks.gappedPeak
retina_Early_10090	h3k4me3	SRR4252849_h3k4me3_10090_peaks.gappedPeak
retina_Early_10090	h3k4me3	SRR4252846_h3k4me3_10090_peaks.gappedPeak
retina_Early_10090	h3k4me3	SRR4252847_h3k4me3_10090_peaks.gappedPeak
retina_Late_10090	h3k27ac	SRR1574503_h3k27ac_10090_peaks.broadPeak
retina_Late_10090	h3k27ac	SRR1574504_h3k27ac_10090_peaks.broadPeak
retina_Late_10090	h3k27ac	SRR2759033_h3k27ac_10090_peaks.broadPeak
retina_Late_10090	h3k27ac	SRR2759035_h3k27ac_10090_peaks.broadPeak
retina_Late_10090	h3k27ac	SRR2759032_h3k27ac_10090_peaks.broadPeak
retina_Early_10090	h3k27ac	SRR2759029_h3k27ac_10090_peaks.broadPeak
retina_Late_10090	h3k27ac	SRR2759036_h3k27ac_10090_peaks.broadPeak
retina_Late_10090	h3k27ac	SRR2759034_h3k27ac_10090_peaks.broadPeak
retina_Early_10090	h3k27ac	SRR2759028_h3k27ac_10090_peaks.broadPeak
retina_Late_10090	h3k27ac	SRR4252709_h3k27ac_10090_peaks.broadPeak
retina_Late_10090	h3k27ac	SRR4252712_h3k27ac_10090_peaks.broadPeak
retina_Late_10090	h3k27ac	SRR4252710_h3k27ac_10090_peaks.broadPeak
retina_Early_10090	h3k27ac	SRR4252701_h3k27ac_10090_peaks.broadPeak
retina_Early_10090	h3k27ac	SRR4252699_h3k27ac_10090_peaks.broadPeak
retina_Late_10090	h3k27ac	SRR4252716_h3k27ac_10090_peaks.broadPeak
retina_Early_10090	h3k27ac	SRR4252707_h3k27ac_10090_peaks.broadPeak
retina_Late_10090	h3k27ac	SRR4252708_h3k27ac_10090_peaks.broadPeak
retina_Late_10090	h3k27ac	SRR4252711_h3k27ac_10090_peaks.broadPeak
retina_Early_10090	h3k27ac	SRR4252702_h3k27ac_10090_peaks.broadPeak
retina_Early_10090	h3k27ac	SRR4252705_h3k27ac_10090_peaks.broadPeak
retina_Early_10090	h3k27ac	SRR4252703_h3k27ac_10090_peaks.broadPeak
retina_Early_10090	h3k27ac	SRR4252698_h3k27ac_10090_peaks.broadPeak
retina_Early_10090	h3k27ac	SRR4252697_h3k27ac_10090_peaks.broadPeak
retina_Early_10090	h3k27ac	SRR4252704_h3k27ac_10090_peaks.broadPeak
retina_Late_10090	h3k27ac	SRR4252713_h3k27ac_10090_peaks.broadPeak
retina_Early_10090	h3k27ac	SRR4252706_h3k27ac_10090_peaks.broadPeak
retina_Late_10090	h3k27ac	SRR4252717_h3k27ac_10090_peaks.broadPeak
retina_Early_10090	h3k27ac	SRR4252700_h3k27ac_10090_peaks.broadPeak
retina_Early_10090	ATAC-DNaseI	SRR574529_DNaseI_10090_peaks.broadPeak
retina_Early_10090	ATAC-DNaseI	SRR574540_DNaseI_10090_peaks.broadPeak
retina_Early_10090	ATAC-DNaseI	SRR574544_DNaseI_10090_peaks.broadPeak
retina_Early_10090	ATAC-DNaseI	SRR574536_DNaseI_10090_peaks.broadPeak
retina_Early_10090	ATAC-DNaseI	SRR574545_DNaseI_10090_peaks.broadPeak
retina_Early_10090	ATAC-DNaseI	SRR574541_DNaseI_10090_peaks.broadPeak
retina_Early_10090	ATAC-DNaseI	SRR574531_DNaseI_10090_peaks.broadPeak
retina_Early_10090	ATAC-DNaseI	SRR574526_DNaseI_10090_peaks.broadPeak
retina_Early_10090	ATAC-DNaseI	SRR574543_DNaseI_10090_peaks.broadPeak
retina_Early_10090	ATAC-DNaseI	SRR574534_DNaseI_10090_peaks.broadPeak
retina_Early_10090	ATAC-DNaseI	SRR574538_DNaseI_10090_peaks.broadPeak
retina_Early_10090	ATAC-DNaseI	SRR574532_DNaseI_10090_peaks.broadPeak
retina_Early_10090	ATAC-DNaseI	SRR574547_DNaseI_10090_peaks.broadPeak
retina_Early_10090	ATAC-DNaseI	SRR574546_DNaseI_10090_peaks.broadPeak
retina_Early_10090	ATAC-DNaseI	SRR574527_DNaseI_10090_peaks.broadPeak
retina_Early_10090	ATAC-DNaseI	SRR574537_DNaseI_10090_peaks.broadPeak
retina_Early_10090	ATAC-DNaseI	SRR574533_DNaseI_10090_peaks.broadPeak
retina_Early_10090	ATAC-DNaseI	SRR574525_DNaseI_10090_peaks.broadPeak
retina_Early_10090	ATAC-DNaseI	SRR574528_DNaseI_10090_peaks.broadPeak
retina_Early_10090	ATAC-DNaseI	SRR574530_DNaseI_10090_peaks.broadPeak
retina_Early_10090	ATAC-DNaseI	SRR574535_DNaseI_10090_peaks.broadPeak
retina_Early_10090	ATAC-DNaseI	SRR574539_DNaseI_10090_peaks.broadPeak
retina_Early_10090	ATAC-DNaseI	SRR574542_DNaseI_10090_peaks.broadPeak
retina_Early_10090	ATAC-DNaseI	SRR579166_DNaseI_10090_peaks.broadPeak
retina_Early_10090	ATAC-DNaseI	SRR579164_DNaseI_10090_peaks.broadPeak
retina_Late_10090	ATAC-DNaseI	SRR579103_DNaseI_10090_peaks.broadPeak
retina_Late_10090	ATAC-DNaseI	SRR579101_DNaseI_10090_peaks.broadPeak
retina_Late_10090	ATAC-DNaseI	SRR579227_DNaseI_10090_peaks.broadPeak
retina_Early_10090	ATAC-DNaseI	SRR579163_DNaseI_10090_peaks.broadPeak
retina_Late_10090	ATAC-DNaseI	SRR579104_DNaseI_10090_peaks.broadPeak
retina_Late_10090	ATAC-DNaseI	SRR579228_DNaseI_10090_peaks.broadPeak
retina_Late_10090	ATAC-DNaseI	SRR579102_DNaseI_10090_peaks.broadPeak
retina_Early_10090	ATAC-DNaseI	SRR579165_DNaseI_10090_peaks.broadPeak
retina_Late_10090	ATAC-DNaseI	SRR579229_DNaseI_10090_peaks.broadPeak
retina_Late_10090	ATAC-DNaseI	SRR579230_DNaseI_10090_peaks.broadPeak
retina_Early_10090	ATAC-DNaseI	SRR579167_DNaseI_10090_peaks.broadPeak
retina_Late_10090	ATAC-DNaseI	SRR3655914_DNaseI_10090_peaks.broadPeak
retina_Late_10090	ATAC-DNaseI	SRR3655913_DNaseI_10090_peaks.broadPeak
retina_Late_10090	ATAC-DNaseI	SRR3655911_DNaseI_10090_peaks.broadPeak
retina_Late_10090	ATAC-DNaseI	SRR3655915_DNaseI_10090_peaks.broadPeak
retina_Late_10090	ATAC-DNaseI	SRR3655918_DNaseI_10090_peaks.broadPeak
retina_Late_10090	ATAC-DNaseI	SRR3655917_DNaseI_10090_peaks.broadPeak
retina_Late_10090	ATAC-DNaseI	SRR3655912_DNaseI_10090_peaks.broadPeak
retina_Late_10090	ATAC-DNaseI	SRR3655916_DNaseI_10090_peaks.broadPeak
retina_Late_10090	ATAC-DNaseI	SRR2721956_ATAC-Seq_10090_peaks.broadPeak
retina_Late_10090	ATAC-DNaseI	SRR2721952_ATAC-Seq_10090_peaks.broadPeak
retina_Late_10090	ATAC-DNaseI	SRR2721954_ATAC-Seq_10090_peaks.broadPeak
retina_Late_10090	ATAC-DNaseI	SRR2721957_ATAC-Seq_10090_peaks.broadPeak
retina_Late_10090	ATAC-DNaseI	SRR2721949_ATAC-Seq_10090_peaks.broadPeak
retina_Late_10090	ATAC-DNaseI	SRR2721948_ATAC-Seq_10090_peaks.broadPeak
retina_Late_10090	ATAC-DNaseI	SRR2721946_ATAC-Seq_10090_peaks.broadPeak
retina_Late_10090	ATAC-DNaseI	SRR2721951_ATAC-Seq_10090_peaks.broadPeak
